<?xml version="1.0" encoding="utf-8"?>
<!-- Generator: Adobe Illustrator 25.2.1, SVG Export Plug-In . SVG Version: 6.00 Build 0)  -->
<svg version="1.1" id="Layer_1" xmlns="http://www.w3.org/2000/svg" xmlns:xlink="http://www.w3.org/1999/xlink" x="0px" y="0px"
	 viewBox="0 0 1024 1024" style="enable-background:new 0 0 1024 1024;" xml:space="preserve">
<style type="text/css">
	.st0{fill:#00825A;}
	.st1{fill:#FFFFFF;}
	.st2{fill:#50288F;}
	.st3{fill:#ED1A8A;}
	.st4{fill:#FFD101;}
	.st5{fill:#528EB9;}
	.st6{fill:#A5035B;}
	.st7{fill:none;stroke:#FFFFFF;stroke-width:1.0422;stroke-linecap:round;stroke-miterlimit:10;}
	.st8{display:none;fill:none;stroke:#FFFFFF;stroke-width:1.0422;stroke-linecap:round;stroke-miterlimit:10;}
</style>
<rect class="st0" width="1024" height="1024"/>
<g>
	<path class="st1" d="M535.4,423.7c0,0,2.1,57.8,4.7,70.9c2.6,13,8.9,31.8,8.9,31.8s-2.1,58.9,0,65.1c2.1,6.3,8.3,45.3,8.3,57.8
		s-0.5,43.3-4.7,52.1c-4.2,8.9-8.9,61.5-8.9,61.5s28.1-7.3,31.8-13c3.6-5.7,19.3-46.4,20.3-53.7s6.3-65.7,8.3-75
		c2.1-9.4,6.3-67.2,3.6-78.2c-2.6-10.9-14.6-44.3-14.6-55.8c0-11.4-4.7-60.4-16.2-84.9c-11.5-24.5-53.2-12.5-53.2-12.5L535.4,423.7z
		"/>
	<path class="st2" d="M518.7,633.2c0,0,24,40.6,31.3,47.9c7.3,7.3,18.8,18.2,22.9,25.5c4.2,7.3,11.5,28.1,11.5,28.1
		s-9.4,29.7-8.3,39.1s13,86,14.1,92.2s8.9,86,9.4,97.5c0.5,11.5,3.6,52.6,4.7,60.5c1,7.8,7.3,69.8,4.7,83.9
		c-2.6,14.1-99.5,10.4-99.5,10.4s2.1-42.2,0-55.2c-2.1-13-9.4-48.5-11.5-57.3c-2.1-8.9-4.7-37.5-6.8-46.4
		c-2.1-8.9-20.3-58.4-25-67.7c-4.7-9.4-31.3-62.5-31.3-62.5s-10.4,29.2-11.5,39.6c-1,10.4-9.4,111-7.8,118.3
		c1.6,7.3-4.2,40.1-4.2,45.9c0,5.7,16.2,73.5,13,79.7c-3.1,6.3-98.5,1-98.5,1s-2.6-71.9-2.6-87.5c0-15.6-0.9-61.5-4.1-66.7
		c-3.2-5.2-17.8-84.4-16.2-92.8c0,0-13.5-79.7-12.2-90.8c1.4-11.1,4.2-76.4,9.7-96.6c5.6-20.2,18.1-46,18.1-46H518.7z"/>
	<path class="st1" d="M225.8,640.5c-2.6-12.6-6.3-56.8-4.7-62.5s3.6-62,3.1-70.9s9.9-88.1,9.9-88.1s44.3,2.6,57.3,33.9
		c13,31.3,0,80.8,0,93.3s-7.8,38-8.9,51.6c-1,13.5,5.2,65.7,3.6,78.7c-1.6,13-1,25-1.6,44.3c0,0-0.5,30.2,1,34.4
		c1.6,4.2,17.2,31.3,19.3,35.4c2.1,4.2,12.5,24.5,13,29.2c0.5,4.7,5.7,30.7,7.8,36.5c2.1,5.7,5.2,11.5,2.6,14.1
		c-2.6,2.6-18.8,2.6-21.4-11.5c-2.6-14.1-5.7-24.5-5.7-24.5s-2.1,8.3-2.1,10.9c0,2.6,1.6,7.8,1.6,9.4c0,1.6-1,5.2-1,5.2
		s3.6,5.2,4.2,8.3c0.5,3.1,0.5,3.1,0.5,3.1s12.5,6.8,13,9.4c0.5,2.6,9.9,1,10.4,5.7c0.5,4.7-3.1,7.3-10.4,7.3
		c-7.3,0-19.3-7.8-21.4-9.4c-2.1-1.6-4.7-3.6-4.7-3.6s-7.3,4.7-8.9,2.1c-1.6-2.6-7.5-5.7-7.5-5.7s-3.4,2.6-5-1
		c-1.6-3.6-7.8-13-7.8-13s-1.6,5.7-5.2-2.6c-3.6-8.3-7.8-18.8-8.9-24c-1-5.2,3.6-35.4,1.6-49.5c-2.1-14.1-6.3-38-9.4-56.8
		S230.4,662.8,225.8,640.5z"/>
	<path class="st3" d="M307.5,662.6c0,0,45.2,13.2,52.1,14.9c6.9,1.7,49.3,9,55.6,9.4c6.3,0.3,44.1-1.4,53.5-4.9s44.5-8.7,48.3-11.8
		c3.8-3.1,17.7-10.8,17.7-10.8l-3.8-17c0,0-89.3,19.5-98.7,19.8c-9.4,0.3-58.4-0.7-68.1-3.8c-9.7-3.1-54.5-12.2-54.5-12.2
		L307.5,662.6z"/>
	<polygon class="st2" points="368.3,652.9 368.3,681.7 377,684.5 377,658.4 	"/>
	<polygon class="st2" points="484,652.9 486.8,680.6 495.8,678.6 493.4,650.4 	"/>
	<path class="st4" d="M433.9,660.2v3.8c0,0-18.8-2.1-22.2,4.7c-3.5,6.8-0.7,15.8,4.2,17.2c4.9,1.4,16.3,1.4,16.3,1.4
		s1.4,2.8-0.7,2.8c-2.1,0-15.3,1.7-18.8,0s-6.1-7-6.9-12.2c-2.4-14.2,8.7-19.8,13.9-19.5C424.9,658.8,433.9,660.2,433.9,660.2z"/>
	<path class="st2" d="M400.6,245c-14.6,0-45.2,2.8-51.4,5.6s-13.4,4.3-12,13.4c1.4,9,58.5,80.4,74.5,73.5
		c16-6.9,48.6-81.2,48.6-81.2s-4.1-0.8-11.1-6.3C442.3,244.3,400.6,245,400.6,245z"/>
	<path class="st1" d="M314.4,298.5c9.7-6.3,28.5-16,32-20.2c3.5-4.2,8.3-22.2,8.3-29.2s-1-33.3-1-33.3l87.1,12.4
		c0,0-2.1,37.5,0,47.2s17.4,15.3,27.8,18.1c10.4,2.8-7.6,62.5-7.6,62.5l-88.4,7.3L314.4,298.5z"/>
	<path class="st2" d="M359.2,219.5c1,18.1,14.8,45.1,49.8,56.5c14.2,4.6,30.7,3.8,31.1-2.9c0.4-5.7,4.1-20,10-29.4
		c4.1-6.6-55.9-50.2-64.8-48.9C376.4,196,358.7,210.3,359.2,219.5z"/>
	<path class="st5" d="M337.4,258.5c0,0-8.3,22-7.7,24.7c0.7,2.8,3.5,6.3,3.5,6.3s-6.2,5.6-17.3,9c-11.1,3.5-61.1,34-64.6,38.2
		c-3.5,4.2-23.6,25-22.2,44.5c1.4,19.5-7.6,75.7-6.9,82c0.7,6.3,3.5,9,3.5,9l-3.5,15.1c0,0,21.6,9.2,34.1,7.8
		c12.5-1.4,43.8,0.1,43.8,0.1l1.4-8c0,0-4.2,57.2-4.9,64.1c-0.7,6.9-2.8,50-2.8,54.9c0,4.9,1.6,32,3.6,39.7
		c2.1,7.6,5.3,13.1,12.2,13.8s68.2,2.1,82.1,3.5s22.2-3.5,42.4-3.5c20.1,0,57-2.8,66-6.3c9-3.5,24.4-0.9,32-5.7
		c7.6-4.9,15.4-24.2,8.9-37.3c-3.2-6.5-9.7-38.2-7.6-44.5c2.1-6.3,5.6-44.5,4.2-55.6c-1.4-11.1-2.1-42.4-2.1-42.4s8.3,5.6,20.2,2.8
		c11.8-2.8,29.2-11.1,32.7-16.7c3.5-5.6,2.8-10.4,2.8-10.4l-4.2-9c0,0,6.4-2.8,4.2-12.5c-2.1-9.7-6.3-53.5-9.1-57.7
		c-2.8-4.2-10.4-36.1-24.3-41c-13.9-4.9-50.7-14.6-61.8-22.2s-35.4-13.9-36.1-16c-0.7-2.1,9-6.3,9-6.3l-8.4-22.8
		c0,0-23.6,25.6-26.4,33.3c-2.8,7.6-6.1,21.5-6.1,21.5l-6.8,48.6l-24.5-58.7c0,0-31.4-5-36.9-12.7
		C354,280.4,337.4,258.5,337.4,258.5z"/>
	<path class="st6" d="M557.6,323.5c0,0-2.1-12.5-11.8-18.1c-9.7-5.6-32-16-35.4-17.4c-3.5-1.4-14.7-10.3-25-11.8
		c-16.7-2.4-25.7,9-25.7,9s16.7,9,22.9,16.3c6.3,7.3,9,22.6,6.9,29.5c-2.1,6.9-5.6,19.5-5.6,19.5s-7.6,17.4-15.3,23.6
		c-7.6,6.3-54.9,18.1-60.5,21.5c-5.6,3.5-15.3,16.7-15.3,16.7s-2.8,32,0,50c2.8,18.1,6.9,55.6,7.6,63.2c0.7,7.6-4.9,26.4,0.7,28.5
		c5.6,2.1,49.3-12.5,49.3-12.5s-7.6-35.4-7.6-47.2s0-16.7-1.4-38.9s-3.5-38.2,7.6-44.5s13.4,2.8,27.9-2.1c14.5-4.9,21.5-1.4,34-19.5
		c12.5-18.1,14.6-32,22.2-40.3C540.9,340.9,557.6,323.5,557.6,323.5z"/>
	<path class="st3" d="M333.2,289.5c0,0-3.5-12.5-17.3-12.5s-22.9,22.2-31.3,23.6c-8.3,1.4-22.9,16-22.2,18.8
		c0.7,2.8-15.3,7.6-16,12.5c-0.7,4.9-0.1,10.6-0.1,10.6s15.4-18.3,30.7-7.8c15.3,10.4,51.4,41.7,63.9,53.5
		c12.5,11.8,42.4,23.6,65.3,25.7c22.9,2.1,32,6.3,32,6.3s-0.7,41.7,9.7,61.1c10.4,19.5,8.3,29.2,8.3,29.2s8.3,44.5,6.3,47.2
		s32-8.3,36.8-11.1c4.9-2.8,15.3-7.6,15.3-7.6s-9-39.6-7.6-47.2c1.4-7.6-4.2-50.7-8.3-63.9c-4.2-13.2-2.8-38.2-17.4-45.2
		s-11.1-15.3-28.5-11.1s-26.4,16-36.8,13.2c-10.4-2.8-63.2-39.6-73-52.1c-9.7-12.5-11.8-29.2-11.8-29.2L333.2,289.5z"/>
	<path class="st6" d="M392.3,370.8c0,0,16-9,23.6-6.9c7.6,2.1,27.6,10.8,27.6,10.8s-1.2,14.2-3.3,26.8c-2.1,12.5-3.5,17.4-3.5,17.4
		s-20.6-14.4-27.8-27.6C401.3,377,392.3,370.8,392.3,370.8z"/>
	<path class="st1" d="M336,166.5c-0.3,5.6,0.7,25,3.1,29.2c2.4,4.2,6.6,13.5,9.4,16c2.8,2.4,8.7,3.1,8.7,3.1s3.3,20.5,5.7,24
		c2.4,3.5,13,14.9,18.9,19.1c5.9,4.2,31.2,14.3,41.6,14c10.4-0.3,20.8-2.4,23.2-8.3c2.4-5.9,15.8-33.8,16.4-36.9
		c0.7-3.1,5.2-24.3,5.2-28.4s0.4-16,2.1-20.6s5.2-24.3,4.2-32.3c-1-8-6.9-31.3-13.6-35.8c-6.6-4.5-33.4-23.6-51.1-14.6
		c-17.7,9-48.3,9.4-55.6,23.6C347.1,132.8,336,166.5,336,166.5z"/>
	<g>
		<path class="st4" d="M366.1,189.1c0,0,1.6,18.4,2.2,19.4c0.6,1.1,18.6,11.9,18.6,11.9s-14.5-13.8-15.5-15.9
			C370.4,202.4,366.1,189.1,366.1,189.1z"/>
		<path class="st4" d="M413,215.9c0,0,8.1,8.9,9.2,9.8c1.1,0.8,11.8-5.6,11.8-5.6s-5.5,1-7.9-1.8c-1.5-1.8-5.2-2.5-5.2-2.5
			s1.3,2.3-1.8,1.8C415.9,217.2,413,215.9,413,215.9z"/>
		<path class="st4" d="M415.9,236.4c0,0,9.8-3.6,12.1-2.8c2.3,0.8,4.1,0.7,7.1-0.1c3-0.8,10.1,3.2,10.1,3.2s-10.3,1-13.6,0.8
			C428.3,237.2,415.9,236.4,415.9,236.4z"/>
		<path class="st4" d="M426,247.1c2.2-0.1-10.1,7.7-10.1,7.7s17.2-2.1,18.9-1.6c1.7,0.5,1.2-5.6,1.2-5.6s-4.7,0.8-6.3,0.6
			C428.1,248.2,426,247.1,426,247.1z"/>
		<path class="st4" d="M429.9,170.2c0,0,2.8,0.7,4.9,0c2.1-0.7,8-2.9,11.2-2.8c3.2,0.1,20.3-0.2,22.2,1c1.9,1.2,2.1,3.6,1.5,6.2
			c-0.7,2.6,0,6.7-4.6,7.8c-4.6,1.1-9.9,0.6-9.9,0.6s5.2-2.2,5.8-3.3c0.7-1.1-2.4-2.2-4.7-2.3c-2.3-0.1-3.2-0.4-3.2-0.4
			s0.8,4.9-4,4.9c-4.4,0-5.4-5.1-5.4-5.1s-5.2,1.1-5.6,2.1c-0.4,1.1-3.5,0.4-3.1,3.5c0.4,3.1,1.9,3.7,1.9,3.7s-0.9,0.9-1.5,2.3
			c-0.5,1.4-1.5,4.7-1.5,4.7s-2.8-9.8-2.4-15C432.3,170.5,429.9,170.2,429.9,170.2z"/>
		<path class="st4" d="M377.6,177.2c0,0,1.4-5.7,5.2-7.8c3.7-2,9.7-2.8,14.8-2.1c5.2,0.8,11.7,3,14.7,1.1c3-1.9,6.2-1.1,6.2-1.1
			s-0.2,6.7,0,8.4c0.2,1.7,4.2,5.1,4.2,5.1s1.3,14.6,1.1,16.5c-0.1,1.9-2.4,9.2-1.8,10.7c0.6,1.6,3.6,6.6,3.6,6.6s-5.6-5.1-5.7-9.1
			c-0.1-4-2.2-5.7-4.1-7.6c-1.9-1.9,2.3-14.6,0-16.8c-2.3-2.2-3.2,0.1-3.2,0.1s0.7-3.3-1.4-4.1c-2.2-0.7-4.8-1.3-4.8-1.3
			s0.6,5.4-5.1,5.7c-5.5,0.3-5.4-4.7-5.4-4.7s-4.3,1-5.8,1.7c-1.4,0.7-2.3,1-2.3,1s1.3,0.6,3.6,1.3c2.3,0.7,3.9,1.2,3.9,1.2
			s-7.4,4.4-10.8,2.6C381,183,377.6,177.2,377.6,177.2z"/>
		<path class="st4" d="M467.4,204.5l-8,17.2c0,0,4-3.4,5.2-5.8C465.9,213.5,467.4,204.5,467.4,204.5z"/>
	</g>
	<g>
		<path class="st2" d="M343.5,172.6c0,0,0.2-3.1,2.5-0.4c2.3,2.7,3.9,7.6,3.9,7.6s-3.2-5.5-4.4-6.6
			C343.9,171.7,343.5,172.6,343.5,172.6z"/>
		<path class="st2" d="M353.3,181.4c0,0,1.3,6,0.7,6.8c-0.6,0.7-1.7,3.1,0.1,4.8c1.8,1.7,1.6,5.2,1.6,5.2s-1.3-3.9-2.7-4.7
			c-1.4-0.9-1.6-3-1.3-3.8c0.3-0.8,1.4-1.7,1.4-2.7C353.3,186,353.3,181.4,353.3,181.4z"/>
		<path class="st2" d="M434.7,167.4c0,0,0.1,2.4,1.5,2.3c1.3-0.1,3.8-2.2,5.8-2.6c5.3-1.1,20.6-1.1,23.1,0.2
			c2.4,1.3,3.3,3.2,3.3,3.2s-2.9-1.5-5.6-1.6c-2.7-0.1-11.2,1-13.5,0.9c-2.3-0.1-6.5-0.5-7.7-0.1c-1.2,0.4-2.5,2.4-5.8,2.3
			C432.4,171.9,434.7,167.4,434.7,167.4z"/>
		<path class="st2" d="M379.4,172.9c0,0,4.6-8,11.1-8c2.9,0,10.9,2.1,13.2,2.2c2.3,0.2,12.2-2.2,12.2,0.3c0,0.5-1.9,2.9-3.4,2.8
			c-1.4-0.1-9.1,0.2-11.2-0.8c-2.2-0.9-9.4-1.8-12.6-1.4C385.6,168.4,379.4,172.9,379.4,172.9z"/>
		<path class="st2" d="M384.1,177.3c0,0,2.2-1.7,3.8-2.5c1.5-0.8,5.1,0,5.1,0s-3.5,0.8-4.3,1.1C387.7,176.3,384.1,177.3,384.1,177.3
			z"/>
		<path class="st2" d="M436.7,175.6c-1.1,0.8-1.4,3-1.4,3s1-0.9,1.9-1.7c1-0.8,3.2-1.3,3.2-1.3S437.9,174.7,436.7,175.6z"/>
		<path class="st2" d="M386.9,179.7c0,0,3.3-3.3,5.8-3.7c2.5-0.5,13.2-1.8,14.5-1c1.4,0.9,3,1.9,3,1.9s-0.1-0.2,0.6-0.9
			c0.5-0.5,2.1,3.1,2.1,3.1s-2.3-1.3-3.2-1.4c-0.9-0.1-2.8-0.1-2.8-0.1l-1.3,3l-0.9-3.7l-1.4,0c0,0,0.1,2.4-2.1,2.7
			c-2.4,0.4-2.7-2.6-2.7-2.6l-1.6,0.4l-0.3,3.7l-2.3-3.5c0,0-1.1,0.1-2.1,0.6c-1,0.6-3.4,1.1-3.4,1.1l2.4,1.8c0,0-1.3,0.7-2.4,0.3
			C387.9,181,386.9,179.7,386.9,179.7z"/>
		<path class="st2" d="M437,179.8c0,0,3.1-3.1,6.2-3.8c3.1-0.7,10.9-1.7,15.3,0.3c4.3,1.9,3.9,3.6,3.9,3.6l-4.3,1.6l1.4-1.8
			c0,0,0.4-1-1.4-1.7c-2.3-0.9-3.8-0.6-3.8-0.6l-1.2,2.8l-0.8-3.4l-1,0c0,0,0.9,2.8-1.8,2.9c-2.4,0.1-2.3-2.4-2.3-2.4h-1.2l-0.4,3.4
			l-2.1-2.7c0,0-0.5-0.2-1.8,0.5c-1.3,0.7-1.9,0.9-1.9,0.9l1.5,1.9c0,0-1.1-0.2-2.4-0.6C437.3,180.4,437,179.8,437,179.8z"/>
		<path class="st2" d="M413.8,209.8c0,0-3.2,4.1-2.8,5.4c0.4,1.3,3.7,2.5,3.7,2.5s-1.5-1.5-1.5-2.8
			C413.2,213.7,413.8,209.8,413.8,209.8z"/>
		<path class="st2" d="M421,213.9c1.9,0.3,3.2,3.3,3.2,3.3s-1.9-1.2-3.6-1c-1.7,0.2-2.7,0.2-2.7-0.9
			C417.9,214.2,420.3,213.7,421,213.9z"/>
		<path class="st2" d="M435.3,217.7c0,0,1.6-3.3,3.4-3.8c1.9-0.4,3.2,0.9,2.3,1.9c-0.9,1-1.8,0.5-3.1,0.8
			C436.6,216.9,435.3,217.7,435.3,217.7z"/>
		<path class="st2" d="M409,236.4c0,0,6.2-0.8,9.2-1.8c3-1,5.9-1.9,8.9-1.5c3,0.4,3.5,1.1,4.7,1c1.1-0.1,4.6-1.5,7.9-0.2
			c3.3,1.4,7.1,2.3,7.1,2.3s-1.9,1.4-3.4,1.4c-1.4,0-5.2-0.3-6.9-0.2c-1.8,0.1-4.3,1.2-5.4,1.3c-1,0.1-4.4-1.8-6-1.8
			c-1.6,0-10.9-0.4-10.9-0.4s10.5-0.8,12.5-0.2c1.9,0.6,2.7,1.3,4.3,1c1.6-0.3,6.4-1.5,8.8-0.9c2.4,0.6,4.9,0.2,4.9,0.2
			s-6.5-1.7-8.5-1.9c-1.6-0.2-3.1,0.1-4.6,0.3c-1.5,0.2-5.2-1-6.5-1c-1.4,0-5.8,2.2-7.6,2.5C415.4,236.7,409,236.4,409,236.4z"/>
		<path class="st2" d="M425,246.2c0,0,5.1,0.7,7.5,0.5c2.4-0.2,5.2-0.5,5.2-0.5s-2.2,2.8-5.2,2.8C427.1,249,425,246.2,425,246.2z"/>
	</g>
	<path class="st2" d="M461.7,122.4c0,0-10.5-6.1-32.1,5.9c-20.3,11.3-57.1,6.3-57.1,6.3s-5.2,13.9-5.9,20.5
		c-0.7,6.6-6.3,31.3-6.3,31.3s-8-19.5-13.2-20.5c-5.2-1-9.7,7.6-9.7,10.8c0,3.1,3.8,29.2,11.5,32.7c7.6,3.5,10.8,0,10.8,0l-5.2,23.8
		c0,0-23.9-39.1-26.7-48.8c-2.8-9.7-1.4-34.7-4.2-42c-2.8-7.3,14.7-58.9,32.3-62.2c24.5-4.5,48.3-28.5,93.9-2.4
		c16.8,9.6,20.7,24.3,20.7,24.3s8.8,2.7,10.8,7.6c3,7.3,6.6,32.2,5.9,40.6S469,183.9,469,183.9s2.4-27.2-0.4-40.4
		C465.9,130.3,461.7,122.4,461.7,122.4z"/>
	<g>
		<path class="st7" d="M369.5,135.6c0,0-10.3-1.2-16.8-4.3c-7.4-3.6-14.9-12.7-14.9-12.7"/>
		<path class="st8" d="M367.1,140.9c0,0-8.7-1.9-17-5.4c-8.3-3.5-13-8.9-13-8.9"/>
		<path class="st7" d="M366.1,145.8c0,0-8.9-1.2-17.6-4.9c-8.7-3.6-12.1-7.6-12.1-7.6"/>
		<path class="st8" d="M364.1,150.7c0,0-9.4-1.4-16.8-4.3c-9.4-3.7-11.4-5.9-11.4-5.9"/>
		<path class="st7" d="M363.4,155c0,0-8-0.6-17.5-3.5c-9.5-3-10-4-10-4"/>
		<path class="st7" d="M463.4,118.5c0,0,3.8-10.8-4-17.4c-7.8-6.6-34-10.4-48.5,2.1c-14.5,12.5-28.8,15.3-37.8,12.2"/>
		<path class="st7" d="M467.4,106.8c0,0,2.5-13-16.3-20.2c-15.2-5.8-46.3-8.3-56.4,0c-10.1,8.3-28.6,3.8-28.6,3.8"/>
	</g>
</g>
</svg>
