<?xml version="1.0" encoding="utf-8"?>
<!-- Generator: Adobe Illustrator 25.2.1, SVG Export Plug-In . SVG Version: 6.00 Build 0)  -->
<svg version="1.1" id="Layer_1" xmlns="http://www.w3.org/2000/svg" xmlns:xlink="http://www.w3.org/1999/xlink" x="0px" y="0px"
	 viewBox="0 0 1024 1024" style="enable-background:new 0 0 1024 1024;" xml:space="preserve">
<style type="text/css">
	.st0{fill:#F0C800;}
	.st1{fill:#50288F;}
	.st2{fill:#60BDD8;}
	.st3{fill:#FFFFFF;}
	.st4{fill:#13017C;}
	.st5{fill:#ED1A8A;}
	.st6{fill:#CCCCCC;}
	.st7{display:none;fill:#B3B3B3;}
	.st8{fill:#FFD101;}
</style>
<rect class="st0" width="1024" height="1024"/>
<g>
	<path class="st1" d="M790.2,925.9c0,0-2.4,18.5,0,24.5c2.4,5.9,2,19.3,2,19.3s11,5.5,19.7,5.5s23.3-2,23.3-2v-7.9
		c0,0,11.4,0,15.4,3.2c3.9,3.2,10.7,9.9,18.2,9.9c7.5,0,41.8-0.8,49.3-2c7.5-1.2,15.8-6.7,15.8-6.7s0.8-10.7-10.7-15
		c-11.4-4.3-27.2-2-31.6-5.9c-4.3-3.9-36.3-23.3-37.9-28c-1.6-4.7-14.2-15-16.6-15s-38.3,5.5-39.5,5.5S790.2,925.9,790.2,925.9z"/>
	<path class="st1" d="M734.5,917.6c0,0-5.5,36.3-4.3,41s2.1,14.6,2.1,14.6s-1.6,2.1-1.8,3.3c-0.2,1.2-0.5,7.8,2.1,9.4
		c2.5,1.6,24.6,6.8,37.1,6.7c15.4-0.1,20.9-1.6,21.3-3.2c0.4-1.6-0.1-7.5-1.8-7.9c-1.7-0.4,0.9-5.1,0-9.9
		c-0.9-4.7-2.1-14.6-11.2-24.5c-9.1-9.9-7.1-27.6-7.1-27.6L734.5,917.6z"/>
	<path class="st1" d="M828,530.2c7.5,0.8,88.8-7.5,90-9.5c1.2-2-2.8-119.2-3.6-135.3c-0.8-16.2-1.2-97.9,2-109.7
		c3.2-11.8,9.5-24.9,7.9-32c-1.6-7.1-31.2-23.3-37.5-26.8c-6.3-3.6-16.2-7.1-20.9-7.1s-92.7,16.6-92.7,38.3S820.5,529.4,828,530.2z"
		/>
	<path class="st2" d="M775.6,181.4c-7.1-0.4-36.3,3.9-42.6,7.5c-6.3,3.6-33.1,16.6-37.9,18.9c-4.7,2.4-24.5,7.1-28.4,13.8
		c-3.9,6.7-20.5,44.2-20.5,56.4c0,12.2-9.9,63.5-12.2,74.2c-2.4,10.7-7.1,35.5-7.1,44.2c0,8.7-5.9,33.5-2,41.4
		c3.9,7.9,16.6,29.2,16.6,29.2s8.7-8.3,15-9.5c6.3-1.2,20.5-0.4,20.5-0.4s176.8-37.9,176.4-46.2c-0.4-8.3-4.7-40.2-4.7-40.2
		s10.3,21.7,19.3,27.2c9.1,5.5,11.4,9.9,20.5,9.1c9.1-0.8,20.9-13,22.9-20.1c2-7.1,4.3-21.7,1.6-35.5c-2.8-13.8-13.4-42.6-14.2-56
		c-0.8-13.4-15.4-61.9-20.5-67.1c-5.1-5.1-28-21.3-41-25.2C824.1,199.1,775.6,181.4,775.6,181.4z"/>
	<path class="st1" d="M661.5,366.8c0,0-3.6,17,0,20.9c3.6,3.9,14.6,15.4,10.3,19.3c-4.3,3.9-11.8,0-11.8,0s14.2,10.7,12.8,13.4
		c-1.4,2.8-6.4,6.3-6.4,6.3s7.4,4.6,8.9,7.5c0.3,0.7,5,0.9,5.1-0.8c0.1-4.6,6.2-21.2,6.4-22.7c0.3-2-9.1-30.2-3.6-29
		c5.5,1.2,4.3-2,4.3-2s-2.4-6.7-1.6-13c0.8-6.3,3.9-11.4,3.9-11.4s0-13.4,0-17.8s5.5-16.2,5.5-16.2s-1.2-27.2-2-34.7
		c-0.8-7.5-1.6-17.8-4.3-25.3c-2.8-7.5-6.3-14.6-6.3-14.6s4.7,22.1,6.3,33.5c1.6,11.4,1.6,31.2-1.6,37.5c-3.2,6.3-9.9,3.2-9.9,3.2
		s6.7,6.7,3.9,13.8c-2.8,7.1-7.1,23.7-9.1,25.3c-2,1.6-7.9-13.8-7.9-13.8s2,15.4,1.2,17C665.1,364.9,661.5,366.8,661.5,366.8z"/>
	<path class="st3" d="M682.8,459.5c-2-2.8-22.9-4.7-30.4,0c-7.5,4.7-11,11.8-10.7,15.4c0.4,3.6,10.7,22.9,15,25.6
		c4.3,2.8,28.4-4.3,29.6-12.2S682.8,459.5,682.8,459.5z"/>
	<path class="st4" d="M764.9,575.9c0,0,21.7,66.7,24.1,77.7s11.4,104.6,11.4,106.5s2,7.1,1.6,13c-0.4,5.9-1.1,64.7,0,70.6
		c1.2,5.9-5.6,5.5-7.1,10.3c-1.6,4.7-0.8,54.8-1.6,56.4c-0.8,1.6-5.5,9.1-5.5,14.6c0,5.5,50.9-3.2,56,0c5.1,3.2,17-6.3,10.3-10.7
		s0.5-5.5,2-22.9c1.5-17.4,20.5-83.3,22.5-95.1c2-11.8,5.9-75,8.7-81.3c2.8-6.3,1.6-30-2-47.3c-3.6-17.4-21.7-148.4-23.3-155.8
		c-1.6-7.5-3.6-47.7-5.5-54.8c-2-7.1-9.9-9.9-9.9-15c0-5.1,1.6-26.8-2-26.8c-3.6,0-37.9,8.3-50.1,8.3c-12.2,0-53.3-5.5-62.3-6.3
		c-9.1-0.8-38.7-6.3-39.9-6.3s-7.9-3.2-10.3,0c-2.4,3.2-1.2,30.8-2,38.3c-0.8,7.5-1.6,20.1-9.5,30.4c-7.9,10.3-15.4,14.2-16.2,19.3
		c-0.8,5.1,5.1,34.7,4.3,49.3c-0.8,14.6,0.4,60,5.9,80.9c5.5,20.9,18.5,144.9,20.1,154.3c2.1,12,20.1,79.7,23.3,92.7
		c3.2,13,9.9,43,9.5,48.5c-0.4,5.5-1.2,10.7,2,14.2c3.2,3.6,24.5,1.6,37.1-1.6c12.6-3.2,18.2-7.1,20.1-12.2c2-5.1,5.5-7.5,3.2-11.4
		c-2.4-3.9-11-35.1-15.8-44.6c-4.7-9.5-9.5-25.6-9.9-31.6c-0.4-5.9,1.2-28.4-2.4-43s-3.5-41-4.3-60.4c-0.8-19.3,6.3-46.6,7.1-56.4
		c0.8-9.9,2.8-47.3,3.6-57.2C759,610.7,764.9,575.9,764.9,575.9z"/>
	<g>
		<path class="st5" d="M731,191.2l-16.2,6.7c0,0-5.9,41.8-7.1,49.7s-2.8,54.1-2.4,72.2c0.4,18.2-0.1,40.6-0.1,40.6s-2.4,3.2,0,7.1
			c2.4,3.9,4.8,4.3,4.8,4.3s-6.7,2-8.7,9.5c-2,7.5-4.7,22.5-3.9,27.6c0.8,5.1,0,6.7,2.8,6.7c2.8,0,2-12.6,2.8-18.5
			c0.8-5.9,3.4-16.2,8.8-17.8c5.4-1.6,10.1,0.4,10.9,4.3c0.8,3.9,3.2,15,3.2,19.7c0,4.7,0,14.6,2.8,14.6c2.8,0,2.4-14.2,2.4-19.3
			c0-5.1-3.6-20.5-5.1-22.1c-1.6-1.6-3.6-4.7-3.6-4.7s3.9,0,4.3-7.1c0.4-7.1-3.2-6.7-3.2-6.7s1.2-61.6,1.6-72.6
			c0.4-11,0.8-42.2,2.8-52.5C729.8,222.8,731,191.2,731,191.2z"/>
		<path class="st5" d="M824.5,194.4c0,0-4.3,88.4-3.9,99.8c0.4,11.4,3.2,41,3.9,50.5c0.8,9.5-4.8,24.1-2,28.8
			c2.8,4.7,2.8,4.7,2.8,4.7s-4.8,8.3-4.8,12.6c0,4.3-1.2,16.2,0,20.5c1.2,4.3,0.8,9.9,4.8,9.5s0.8-9.9,0-14.2
			c-0.8-4.3-1.2-24.1,5.5-23.7s7.5,11,8.3,14.2c0.8,3.2-2,20.9,2.4,20.9s3.2-16.2,3.2-20.5c0-4.3-1.6-10.7-4.3-15
			c-2.8-4.3-5.9-7.1-5.9-7.1s4.7-2,4.7-9.1s-4.3-54.1-3.6-67.9c0.8-13.8,2.4-92.7,2.4-92.7L824.5,194.4z"/>
	</g>
	<path class="st1" d="M789.4,340.7c0,0,3.2,17.1,6.7,23c3.6,5.9,9.5,17.8,9.5,17.8s-0.8-18.1-4.3-23.3
		C797.7,353,789.4,340.7,789.4,340.7z"/>
	<path class="st1" d="M878.1,251.6c0,0-3.9,20.9-6.3,24.9c-2.4,3.9-8.3,24.1-7.5,27.2s16.6,26.4,23.7,30.4c7.1,3.9,17,18.9,17,18.9
		s-7.1-17-14.6-22.1c-7.5-5.1-18.1-18.2-18.9-25.6c-0.8-7.5-1.6-13,0-17.4C873,283.6,878.1,251.6,878.1,251.6z"/>
	<path class="st3" d="M839.9,296.2c-4.7,2.4-13.4,15-11.8,19.3c1.6,4.3,13.8,27.6,17.8,32.7c3.9,5.1,7.1,3.6,11,2.8
		c3.9-0.8,17.4-9.1,20.5-16.6c3.2-7.5,3.9-5.5,1.6-10.4c-2.4-5-9.1-21.9-12.2-24.7c-3.2-2.8-6.3-6.3-14.2-5.9
		C844.6,293.8,842.8,294.8,839.9,296.2z"/>
	<path class="st1" d="M806.6,174.1c0,0,4.4,7.3,4,17.6c-0.4,10.3-3.2,18.5,3.6,27.6s3.4,20.1,9,23c5.3,2.7,11.7,1.4,17.5-2.5
		c7-4.6,23.6-22.5,24.8-24.1c1.2-1.6,3.6-10-2.7-13.2c-6.3-3.2-17.9-0.3-17.9-0.3s-2.6-5.1,1.3-6.3c3.9-1.2,9.9-8.3,3.2-15
		c-6.7-6.7-9.5-8.7-19.3-8.7S806.6,174.1,806.6,174.1z"/>
	<path class="st5" d="M744.4,196l-4.3,5.1l14.6,17.4c0,0,1.2,14.2,0,17.8c-1.2,3.6-20.9,37.9-22.1,73.8c-1.2,35.9,1.2,90.4,2,105.7
		c0.8,15.4-5.1,16.6,5.1,24.9s13.4,15.4,15.8,15.4s24.5-17.8,25.3-20.5c0.8-2.8,3.2-74.6,3.6-85.2c0.4-10.7-7.5-47.7-8.7-62.7
		c-1.2-15-10.3-40.2-8.7-45.4c1.6-5.1,8.1-3.9,10.4-13.8c2.3-9.9,3.8-9.5,8.6-10.7c4.7-1.2,17.8-5.1,18.1-11.8
		c0.4-6.7-2.8-6.7-2.8-6.7s-20.1,9.1-23.7,10.3s-7.1-1.6-10.7-2c-3.6-0.4-4.3,2.8-7.5,1.2C756.2,207,744.4,196,744.4,196z"/>
	<path class="st3" d="M773.6,165.6c7.5,0.1,27.6,1.2,32.4,7.5c4.7,6.3,6.4,12.7,5.9,18.4c-0.4,5.1,1.2,25,2.4,28.5
		c1.2,3.6-2,5.5-2,5.5s-9.9-13.8-16.6-15c-6.7-1.2-13.8-2.8-18.5-0.8c-4.7,2-8.7-9.5-13.8-8.3c-5.1,1.2-13.8,10.3-15.8,13.4
		c-2,3.2-12.2,20.1-12.2,20.1s-3.2-22.5-2.4-30c0.8-7.5,0-19.3,2.8-22.5C738.5,179.4,757.8,165.5,773.6,165.6z"/>
	<path class="st6" d="M748.5,181.6c2.6,3.6,10.5,11.8,16.8,15.2c6.3,3.4,11.8,7.5,16.4,6.9s16.8-5.3,19.3-10.1
		c2.6-4.7,2-10.9,1.8-14.2c-0.2-3.4-5.9-12-6.3-19.1c-0.4-7.1,0.8-12.6,2.2-17.8c0,0-0.2-21.7-2.9-24.6s-44.8,25-47.2,33.7
		c-2.4,8.7-9.3,16.6-6.5,21.9C744.8,178.9,748.5,181.6,748.5,181.6z"/>
	<path class="st7" d="M759.6,138c0,0-17,29.8-15.4,34.5s6,12.2,7.6,11.8c1.6-0.4,11.7-13.6,15-11.6c3.4,2,3,17,3,17
		s4.5-3.5,5.3-13.8c0.8-10.3,5.5-15.6,7.3-17.4c1.8-1.8,5.3-3.2,5.9-1c0.6,2.2,1.6,27.6,1.6,27.6l3.6-33.7c0,0,2.8-20.8-5.9-20.7
		C780.4,130.8,759.6,138,759.6,138z"/>
	<path class="st3" d="M745,59c-4.3,0.7-32.5,13.5-34.2,20.2c-1.8,6.7-1.1,23-2.5,27.1c-1.4,4.1-2.4,9.7,0,15.2
		c2.4,5.5,0.7,14,2.3,17.3c1.6,3.4,3.1,9.9,3.5,12.9c0.4,3-0.3,8.3,0.9,10.7c1.2,2.4,2.9,17.7,10.8,18.9c7.9,1.2,22.2-1.8,28.2-3.1
		c6.3-1.5,17-10.7,21.2-16.4c2.4-3.3,4-19.8,4-19.8s7.2,2.5,12.7-4.3c3.3-4,16.5-17.9,16.3-29.1s-3.4-31.6-12.8-37.3
		C785.9,65.5,773.8,54.1,745,59z"/>
	<g>
		<path class="st1" d="M717.2,142.8c0,0,10.5,2.1,10.9,0c0.4-2.1,0-3.8,0-3.8s3.4,3.3,2.7,4c-0.7,0.7-6.1,3.6-6.8,4.3
			C723.4,147.9,717.2,142.8,717.2,142.8z"/>
		<path class="st1" d="M720.8,154.2c0,0-1.5,1.9-0.7,2.5s8.9,1,10.8,1c1.8,0,6.3-1.8,6.3-1.8s-9.2,0.3-11.4,0
			S720.8,154.2,720.8,154.2z"/>
		<path class="st1" d="M725,164.7c0,0,0.7,3.8,2.1,2.7c1.3-1.2,4.9-2.7,4.9-2.7H725z"/>
		<path class="st1" d="M786,115.4c-1.9,1-4.4,3.1-4,4.7c0.4,1.6,4.3,1.2,2.8,4.3s-0.8,2.5-0.8,2.5s4.5-2.5,3.9-5.7
			C787.3,117.9,786,115.4,786,115.4z"/>
	</g>
	<path d="M704.2,66.6c-2.2,3.1,0.1,13.9,3.6,15.7s8.9,9.3,14.9,7.5c6.1-1.8,16.7-6.1,22.8-5.2c6.1,0.9,9.2,2.7,9.9,2.7
		c0.7,0,12.7,1.6,12.9,4.7c0.1,3.1-1.3,10.1-0.9,12c0.4,1.9,2.7,13.5,2.1,16.3c-0.6,2.8,0.1,9.6,0.1,9.6s8.5-16,11.7-18.5
		s10.7-10.5,16.1-5.9c5.5,4.6,5.9,12.7,3.8,17.8c-2.1,5-7.3,10.5-8.2,12.8c-0.9,2.2,1.7,12.1,1.9,15.5c0.1,3.4-0.3,7.7,2.5,9.6
		c2.8,1.9,8.6-2.2,8.6-2.2s0.9-13.3,2.4-20c1.5-6.7,6.1-22.9,5.9-28.3c-0.1-5.3,1-28.7-2.4-34.3c-3.4-5.6-7.8-12.1-11.4-13.6
		c-3.6-1.5-4.7-1.8-4.7-1.8s-5-9.5-11.7-12.1c-6.7-2.7-27.2-7.5-36.1-4.3s-26.9,5.6-30.8,8.1C713.3,55.2,707.1,62.4,704.2,66.6z"/>
	<path class="st3" d="M823.9,238.2c0,0-4.7-4.1-7.5-1.4c-2.8,2.8-1.8,7.5-1.2,12.4c0.6,4.9,0,18.3,0.4,21.1c0.4,2.8-1,7.5,2.2,12.6
		c3.2,5.1,3,5.3,4.9,8.5c2,3.2,5.1,5.1,5.7,8.3c0.6,3.2,3.2,14.4,5.9,17.4c2.8,3,8.9,9.9,14.2,8.7s13.6-6.5,12.8-15
		c-0.8-8.5-5.1-13.2-4.9-18.3c0.2-5.1,3.7-24.1,3.4-29.4c-0.4-5.3,1.6-8.1-2.8-12.8c-4.3-4.7-5.5-2.8-5.5-2.8s0.4-2.8-1-4.3
		c-1.4-1.6,1.6-11.2-1.6-14.2c-3.2-3-3.4-6.1-9.3-4.7c-5.9,1.4-9.3-1.4-11.8,1.2c-2.6,2.6-4.5,5.1-2.4,7.3c2.2,2.2,5.3,2.8,5.3,2.8
		s-4.1,1.4-4.5,2.6c-0.4,1.2-0.6,2.6-0.6,2.6L823.9,238.2z"/>
	<path class="st8" d="M829.4,304.1c0,0-0.6,0.9-0.4,3.7c0.2,2.8,3.2,9.3,6.7,10.3c3.6,1,3.2,3,8.5,2.8s12.2-2.2,14-4.3
		c1.8-2.2,3.5-3.5,3.4-6.9c-0.2-3.4,2.1-4.9,0.2-8.9c-2-3.9-4.2-3-4.2-3s0.7,4.1,0.5,5.9c-0.2,1.8,0.2,3.4-4.5,5.7
		c-4.7,2.4-5.9,3.7-10.1,3.7c-4.1,0-8.9-1.3-10.9-3.9C830.6,306.7,829.4,304.1,829.4,304.1z"/>
	<path class="st1" d="M822.7,248.5c0,0,0.6,3.4,0,4.5c-0.6,1.2-2.4,1.4-2.4,1.4s5.7,2,6.7,4.3c1,2.4,2.4,6.5,2,8.5
		c-0.4,2-0.8,7.1-0.8,7.1s3-7.1,6.1-7.9c3.2-0.8,6.9-0.4,7.7-3c0.8-2.6,1.4-5.3-1-6.5c-2.4-1.2-3.2,0.8-3.7,2.6
		c-0.6,1.8-3.7,4.5-4.7,3.4s-1-3.7-1-3.7s-0.5,3.4-1.5,2.3c-1-1.1-3.2-6.6-2.6-8c0.6-1.4-2.4-0.2-2.8-1.2
		C824.3,251.2,822.7,248.5,822.7,248.5z"/>
	<path class="st5" d="M699.9,114.7c1.6-1.6,4.1-2.5,8.6-1s7.5,4.6,9.9,4.3s8.6-4.9,13.7-5c5-0.1,12.7,1.5,15.1,1.1
		c2.4-0.4,16.2-2.7,18.7-3c2.5-0.3,17.8-1.5,17.8-1.5l-4.4,4.5c0,0-15.2,2.1-20,2.8c-3.5,0.5-14.3,2.7-14.3,2.7s0,9-2.4,11.3
		c-2.4,2.4-9.5,4.9-13,3.6s-4.3-5.4-5.4-7.4c-1.1-2-1.8-4.6-4-4.6c-2.2,0-3.4,2.6-3.6,5.7c-0.1,3.1-0.3,4.1-1.8,5.2
		c-1.5,1-8.3,3.1-11.7-2.7c-3.4-5.8-4.3-6.4-4.4-9.3c-0.1-3,0-4.9,0-4.9S699.3,115.2,699.9,114.7z"/>
</g>
</svg>
